Working with epi_df objects and time series data • epiprocess
…
edf %>%
  complete(geo_value, time_value = seq.Date(min(time_value), max(time_value), by = "day")) %>%
  arrange_canonical() %>%
  group_by(geo_value) %>%
  mutate(cases_7sd = slider::slide_dbl(cases, .f = sd, na.rm = TRUE, .before = 7, .after = 0)) %>%
  ungroup()
#> An `epi_df` object, 4,026 x 4 with metadata:
#> * geo_type  = state
#> * time_type = day
#> * as_of     = 2024-03-20
#> 
#> # A tibble: 4,026 × 4
#>   geo_value time_value cases cases_7sd
#>   <chr>     <date>     <dbl>     <dbl>
#> 1 ca        2020-03-01     6     NA   
#> 2 ca        2020-03-02     4      1.41
#> 3 ca        2020-03-03     6      1.15
#> 4 ca        2020-03-04    11      2.99
#> 5 ca        2020-03-05    10      2.97
#> 6 ca        2020-03-06    18      5.08
#> # ℹ 4,020 more rows
…
t is the ref_time_value for the current window

... (optional) are any additional arguments you’d like
to be able to forward to your function

The same computation as above can be done with a function:

edf %>%
  epi_slide(.f = function(x, g, t) sd(x$cases, na.rm = TRUE), .window_size = 7)
#> An `epi_df` object, 4,026 x 4 with metadata:
#> * geo_type  = state
#> * time_type = day
#> * as_of     = 2024-03-20
#> 
#> # A tibble: 4,026 × 4
#>   geo_value time_value cases slide_value
#>   <chr>     <date>     <dbl>       <dbl>
#> 1 ca        2020-03-01     6       NA   
#> 2 ca        2020-03-02     4        1.41
#> 3 ca        2020-03-03     6        1.15
#> 4 ca        2020-03-04    11        2.99
#> 5 ca        2020-03-05    10        2.97
#> 6 ca        2020-03-06    18        5.08
#> # ℹ 4,020 more rows

epi_slide() with a formula

The same computation as above can be done with a formula, where all
references to the columns must be made with the prefix
.x$..., for instance:

edf %>%
  epi_slide(~ sd(.x$cases, na.rm = TRUE), .window_size = 7)
#> An `epi_df` object, 4,026 x 4 with metadata:
#> * geo_type  = state
#> * time_type = day
#> * as_of     = 2024-03-20
#> 
#> # A tibble: 4,026 × 4
#>   geo_value time_value cases slide_value
#>   <chr>     <date>     <dbl>       <dbl>
#> 1 ca        2020-03-01     6       NA   
#> 2 ca        2020-03-02     4        1.41
#> 3 ca        2020-03-03     6        1.15
#> 4 ca        2020-03-04    11        2.99
#> 5 ca        2020-03-05    10        2.97
#> 6 ca        2020-03-06    18        5.08
#> # ℹ 4,020 more rows
…
edf %>%
  epi_slide(
    ~ tibble(
      cases_mean = mean(.x$cases, na.rm = TRUE),
      cases_sd = sd(.x$cases, na.rm = TRUE)
    ),
    .window_size = 7
  )
#> An `epi_df` object, 4,026 x 5 with metadata:
#> * geo_type  = state
#> * time_type = day
#> * as_of     = 2024-03-20
#> 
#> # A tibble: 4,026 × 5
#>   geo_value time_value cases cases_mean cases_sd
#>   <chr>     <date>     <dbl>      <dbl>    <dbl>
#> 1 ca        2020-03-01     6       6       NA   
#> 2 ca        2020-03-02     4       5        1.41
#> 3 ca        2020-03-03     6       5.33     1.15
#> 4 ca        2020-03-04    11       6.75     2.99
#> 5 ca        2020-03-05    10       7.4      2.97
#> 6 ca        2020-03-06    18       9.17     5.08
#> # ℹ 4,020 more rows
…
edf %>%
  epi_slide_mean("cases", .window_size = 7, na.rm = TRUE)
#> An `epi_df` object, 4,026 x 4 with metadata:
#> * geo_type  = state
#> * time_type = day
#> * as_of     = 2024-03-20
#> 
#> # A tibble: 4,026 × 4
#>   geo_value time_value cases cases_7dav
#>   <chr>     <date>     <dbl>      <dbl>
#> 1 ca        2020-03-01     6       6   
#> 2 ca        2020-03-02     4       5   
#> 3 ca        2020-03-03     6       5.33
#> 4 ca        2020-03-04    11       6.75
#> 5 ca        2020-03-05    10       7.4 
#> 6 ca        2020-03-06    18       9.17
#> # ℹ 4,020 more rows
edf %>%
  epi_slide_sum("cases", .window_size = 7, na.rm = TRUE)
#> An `epi_df` object, 4,026 x 4 with metadata:
#> * geo_type  = state
#> * time_type = day
#> * as_of     = 2024-03-20
#> 
#> # A tibble: 4,026 × 4
#>   geo_value time_value cases cases_7dsum
#>   <chr>     <date>     <dbl>       <dbl>
#> 1 ca        2020-03-01     6           6
#> 2 ca        2020-03-02     4          10
#> 3 ca        2020-03-03     6          16
#> 4 ca        2020-03-04    11          27
#> 5 ca        2020-03-05    10          37
#> 6 ca        2020-03-06    18          55
#> # ℹ 4,020 more rows
…
      "age_group_2" ~ "18--49 yr",
      "age_group_3" ~ "50--64 yr",
      "age_group_4" ~ ">= 65 yr",
      # Make this a factor with appropriate level ordering:
      .ptype = factor(levels = c(
        "0--4 yr", "5--17 yr", "18--49 yr",
        "50--64 yr", ">= 65 yr"
      ))
    )
  ) %>%
  # The API currently outputs `epiweek` in Date format (the constituent Sunday);
  # rename it to remind us that it's not in YYYYww format:
  rename(time_value = epiweek)
flu_data
#> # A tibble: 305 × 4
#>   location time_value age_group  rate
#>   <chr>    <date>     <fct>     <dbl>
#> 1 CA       2017-12-31 0--4 yr     4.4
#> 2 CA       2017-12-31 5--17 yr    1.7
#> 3 CA       2017-12-31 18--49 yr   2.7
#> 4 CA       2017-12-31 50--64 yr  18.7
#> 5 CA       2017-12-31 >= 65 yr   99.7
#> 6 CA       2018-01-07 0--4 yr     4.4
#> # ℹ 299 more rows

We can now convert this data to an epi_df object and set
the age_group column as an additional group key:

flu_data <- flu_data %>% as_epi_df(other_keys = "age_group")
#> inferring geo_value column.
flu_data
#> An `epi_df` object, 305 x 4 with metadata:
#> * geo_type  = state
#> * time_type = week
#> * other_keys = age_group
#> * as_of     = 2025-04-08 20:56:19.178358
#> 
#> # A tibble: 305 × 4
#>   geo_value age_group time_value  rate
#> * <chr>     <fct>     <date>     <dbl>
#> 1 CA        0--4 yr   2017-12-31   4.4
#> 2 CA        5--17 yr  2017-12-31   1.7
#> 3 CA        18--49 yr 2017-12-31   2.7
#> 4 CA        50--64 yr 2017-12-31  18.7
#> 5 CA        >= 65 yr  2017-12-31  99.7
#> 6 CA        0--4 yr   2018-01-07   4.4
#> # ℹ 299 more rows
…
rate_overall_recalc_edf <-
  fractional_rate_by_age_group %>%
  sum_groups_epi_df("rate_contrib", group_cols = c("geo_value")) %>%
  rename(rate_overall_recalc = rate_contrib) %>%
  # match rounding of original data:
  mutate(rate_overall_recalc = round(rate_overall_recalc, 1))
rate_overall_recalc_edf
#> An `epi_df` object, 61 x 3 with metadata:
#> * geo_type  = state
#> * time_type = week
#> * as_of     = 2025-04-08 20:56:19.178358
#> 
#> # A tibble: 61 × 3
#>   geo_value time_value rate_overall_recalc
#>   <chr>     <date>                   <dbl>
#> 1 CA        2017-12-31                19.8
#> 2 CA        2018-01-07                12  
#> 3 CA        2018-01-14                 9  
#> 4 CA        2018-01-21                 6.1
#> 5 CA        2018-01-28                 4.7
#> 6 CA        2018-02-04                 3.4
#> # ℹ 55 more rows
…
