Get started with epiprocess • epiprocess
…
edf <- covid_confirmed_cumulative_num %>%
  select(geo_value, time_value, cases_cumulative = value) %>%
  as_epi_df() %>%
  group_by(geo_value) %>%
  mutate(cases_daily = cases_cumulative - lag(cases_cumulative, default = 0))
edf
#> An `epi_df` object, 2,808 x 4 with metadata:
#> * geo_type  = state
#> * time_type = day
#> * as_of     = 2025-03-07 00:42:12.806987
#> 
#> # A tibble: 2,808 × 4
#> # Groups:   geo_value [4]
#>   geo_value time_value cases_cumulative cases_daily
#>   <chr>     <date>                <dbl>       <dbl>
#> 1 ca        2020-03-01               19          19
#> 2 fl        2020-03-01                0           0
#> 3 ny        2020-03-01                0           0
#> 4 tx        2020-03-01                0           0
#> 5 ca        2020-03-02               23           4
#> 6 fl        2020-03-02                1           1
#> # ℹ 2,802 more rows
…
We can compute the 7 day moving average of the confirmed daily cases
for each geo_value by using the
epi_slide_mean() function. For a more in-depth guide to
sliding, see vignette("epi_df").

edf %>%
  group_by(geo_value) %>%
  epi_slide_mean(cases_daily, .window_size = 7, na.rm = TRUE)
#> An `epi_df` object, 2,808 x 5 with metadata:
#> * geo_type  = state
#> * time_type = day
#> * as_of     = 2025-03-07 00:42:12.806987
#> 
#> # A tibble: 2,808 × 5
#> # Groups:   geo_value [4]
#>   geo_value time_value cases_cumulative cases_daily cases_daily_7dav
#>   <chr>     <date>                <dbl>       <dbl>            <dbl>
#> 1 ca        2020-03-01               19          19            19   
#> 2 ca        2020-03-02               23           4            11.5 
#> 3 ca        2020-03-03               29           6             9.67
#> 4 ca        2020-03-04               40          11            10   
#> 5 ca        2020-03-05               50          10            10   
#> 6 ca        2020-03-06               68          18            11.3 
#> # ℹ 2,802 more rows

We can compute the growth rate of the confirmed cumulative cases for
each geo_value. For a more in-depth guide to growth rates,
see vignette("growth_rate").

edf %>%
  group_by(geo_value) %>%
  mutate(cases_growth = growth_rate(x = time_value, y = cases_cumulative, method = "rel_change", h = 7))
#> An `epi_df` object, 2,808 x 5 with metadata:
#> * geo_type  = state
#> * time_type = day
#> * as_of     = 2025-03-07 00:42:12.806987
#> 
#> # A tibble: 2,808 × 5
#> # Groups:   geo_value [4]
#>   geo_value time_value cases_cumulative cases_daily cases_growth
#>   <chr>     <date>                <dbl>       <dbl>        <dbl>
#> 1 ca        2020-03-01               19          19        0.534
#> 2 fl        2020-03-01                0           0      Inf    
#> 3 ny        2020-03-01                0           0      Inf    
#> 4 tx        2020-03-01                0           0      Inf    
#> 5 ca        2020-03-02               23           4        0.579
#> 6 fl        2020-03-02                1           1        2.32 
#> # ℹ 2,802 more rows

Detect outliers in daily reported cases for each
geo_value. For a more in-depth guide to outlier detection,
see vignette("outliers").

edf %>%
  group_by(geo_value) %>%
  mutate(outlier_info = detect_outlr(x = time_value, y = cases_daily)) %>%
  ungroup()
#> An `epi_df` object, 2,808 x 5 with metadata:
#> * geo_type  = state
#> * time_type = day
#> * as_of     = 2025-03-07 00:42:12.806987
#> 
#> # A tibble: 2,808 × 5
#>   geo_value time_value cases_cumulative cases_daily outlier_info$rm_lower
#>   <chr>     <date>                <dbl>       <dbl>                 <dbl>
#> 1 ca        2020-03-01               19          19                  0.5 
#> 2 fl        2020-03-01                0           0                 -2.5 
#> 3 ny        2020-03-01                0           0                 -2.5 
#> 4 tx        2020-03-01                0           0                 -2   
#> 5 ca        2020-03-02               23           4                  0.25
#> 6 fl        2020-03-02                1           1                 -1.75
#> # ℹ 2,802 more rows
#> # ℹ 5 more variables: outlier_info$rm_upper <dbl>, $rm_replacement <dbl>, …
…
Note that if an epi_df object loses its geo_value or
time_value columns, it will decay to a regular tibble.

edf %>% select(-time_value)
#> # A tibble: 2,808 × 4
#> # Groups:   geo_value [4]
#>   geo_value cases_cumulative cases_daily deaths_daily
#>   <chr>                <dbl>       <dbl>        <dbl>
#> 1 ca                      19          19            0
#> 2 fl                       0           0            0
#> 3 ny                       0           0            0
#> 4 tx                       0           0            0
#> 5 ca                      23           4            0
#> 6 fl                       1           1            0
#> # ℹ 2,802 more rows
…
