Estimate growth rates in signals • epiprocess
…
x <- x %>%
  group_by(geo_value) %>%
  mutate(cases_gr1 = growth_rate(cases))

head(x, 10)
#> An `epi_df` object, 10 x 4 with metadata:
#> * geo_type  = state
#> * time_type = day
#> * as_of     = 2024-03-20
#> 
#> # A tibble: 10 × 4
#> # Groups:   geo_value [1]
#>   geo_value time_value cases cases_gr1
#>   <chr>     <date>     <dbl>     <dbl>
#> 1 ga        2020-06-01  643.   0.00601
#> 2 ga        2020-06-02  603.   0.0185 
#> 3 ga        2020-06-03  608    0.0240 
#> 4 ga        2020-06-04  656.   0.0218 
#> 5 ga        2020-06-05  677.   0.0193 
#> 6 ga        2020-06-06  718.   0.0163 
#> # ℹ 4 more rows
…
