Detect and correct outliers in signals • epiprocess
…
y <- x %>%
  mutate(cases_corrected = combined_replacement) %>%
  select(geo_value, time_value, cases, cases_corrected)

y %>% filter(cases != cases_corrected)
#> An `epi_df` object, 22 x 4 with metadata:
#> * geo_type  = state
#> * time_type = day
#> * as_of     = 2021-10-28
#> 
#> # A tibble: 22 × 4
#>   geo_value time_value cases cases_corrected
#>   <chr>     <date>     <dbl>           <dbl>
#> 1 fl        2020-07-12 15300          10181 
#> 2 nj        2020-07-19    -8            320.
#> 3 nj        2020-08-13   694            404.
#> 4 nj        2020-08-14   619            397.
#> 5 nj        2020-08-16    40            366 
#> 6 nj        2020-08-22   555            360 
#> # ℹ 16 more rows
…
