More general form of epi_slide_opt for rolling/running computations — epi_slide • epiprocess
…
# Generate some simple time-varying CFR estimates:
with_cfr_estimates <- cases_deaths_subset %>%
  epi_slide(
    cfr_estimate_v0 = death_rate_7d_av[[22]] / case_rate_7d_av[[1]],
    .window_size = 22
  )
with_cfr_estimates %>%
  print(n = 30)
#> An `epi_df` object, 4,026 x 7 with metadata:
#> * geo_type  = state
#> * time_type = day
#> * as_of     = 2024-03-20
#> 
#> # A tibble: 4,026 × 7
#>    geo_value time_value case_rate_7d_av death_rate_7d_av cases cases_7d_av
#>    <chr>     <date>               <dbl>            <dbl> <dbl>       <dbl>
#>  1 ca        2020-03-01         0.00327         0            6        1.29
#>  2 ca        2020-03-02         0.00435         0            4        1.71
#>  3 ca        2020-03-03         0.00617         0            6        2.43
#>  4 ca        2020-03-04         0.00980         0.000363    11        3.86
#>  5 ca        2020-03-05         0.0134          0.000363    10        5.29
#>  6 ca        2020-03-06         0.0200          0.000363    18        7.86
#>  7 ca        2020-03-07         0.0294          0.000363    26       11.6 
#>  8 ca        2020-03-08         0.0341          0.000363    19       13.4 
#>  9 ca        2020-03-09         0.0410          0.000726    23       16.1 
#> 10 ca        2020-03-10         0.0468          0.000726    22       18.4 
#> 11 ca        2020-03-11         0.0519          0.00109     25       20.4 
#> 12 ca        2020-03-12         0.0639          0.00145     43       25.1 
#> 13 ca        2020-03-13         0.0766          0.00109     53       30.1 
#> 14 ca        2020-03-14         0.0875          0.00145     56       34.4 
#> 15 ca        2020-03-15         0.0947          0.00181     39       37.3 
#> 16 ca        2020-03-16         0.144           0.00145    159       56.7 
#> 17 ca        2020-03-17         0.167           0.00218     84       65.6 
#> 18 ca        2020-03-18         0.221           0.00435    176       87.1 
#> 19 ca        2020-03-19         0.275           0.00544    190      108.  
#> 20 ca        2020-03-20         0.350           0.00689    261      138.  
#> 21 ca        2020-03-21         0.385           0.00762    152      152.  
#> 22 ca        2020-03-22         0.480           0.0109     301      189   
#> 23 ca        2020-03-23         0.559           0.0123     376      220   
#> 24 ca        2020-03-24         0.684           0.0156     428      269.  
#> 25 ca        2020-03-25         0.806           0.0181     512      317.  
#> 26 ca        2020-03-26         1.05            0.0218     866      414.  
#> 27 ca        2020-03-27         1.20            0.0279     670      472.  
#> 28 ca        2020-03-28         2.22            0.0588    2965      874   
#> 29 ca        2020-03-29         1.38            0.0352   -2019      543.  
#> 30 ca        2020-03-30         1.74            0.0396    1369      684.  
#> # ℹ 3,996 more rows
#> # ℹ 1 more variable: cfr_estimate_v0 <dbl>
…
cases_deaths_subset %>%
  epi_slide(
    slide_packed = tibble(
      cases_7sd = sd(.x$cases, na.rm = TRUE),
      cases_7dav = mean(.x$cases, na.rm = TRUE)
    ),
    .window_size = 7
  ) %>%
  select(geo_value, time_value, cases, slide_packed)
#> An `epi_df` object, 4,026 x 4 with metadata:
#> * geo_type  = state
#> * time_type = day
#> * as_of     = 2024-03-20
#> 
#> # A tibble: 4,026 × 4
#>    geo_value time_value cases slide_packed$cases_7sd $cases_7dav
#>    <chr>     <date>     <dbl>                  <dbl>       <dbl>
#>  1 ca        2020-03-01     6                  NA           6   
#>  2 ca        2020-03-02     4                   1.41        5   
#>  3 ca        2020-03-03     6                   1.15        5.33
#>  4 ca        2020-03-04    11                   2.99        6.75
#>  5 ca        2020-03-05    10                   2.97        7.4 
#>  6 ca        2020-03-06    18                   5.08        9.17
#>  7 ca        2020-03-07    26                   7.87       11.6 
#>  8 ca        2020-03-08    19                   7.87       13.4 
#>  9 ca        2020-03-09    23                   7.34       16.1 
#> 10 ca        2020-03-10    22                   6.02       18.4 
#> # ℹ 4,016 more rows
…
  epi_slide(
    ~ tibble(
      cases_7sd = sd(.x$cases, na.rm = TRUE),
      cases_7dav = mean(.x$cases, na.rm = TRUE)
    ),
    .new_col_name = "slide_packed",
    .window_size = 7
  ) %>%
  select(geo_value, time_value, cases, slide_packed)
#> An `epi_df` object, 4,026 x 4 with metadata:
#> * geo_type  = state
#> * time_type = day
#> * as_of     = 2024-03-20
#> 
#> # A tibble: 4,026 × 4
#>    geo_value time_value cases slide_packed$cases_7sd $cases_7dav
#>    <chr>     <date>     <dbl>                  <dbl>       <dbl>
#>  1 ca        2020-03-01     6                  NA           6   
#>  2 ca        2020-03-02     4                   1.41        5   
#>  3 ca        2020-03-03     6                   1.15        5.33
#>  4 ca        2020-03-04    11                   2.99        6.75
#>  5 ca        2020-03-05    10                   2.97        7.4 
#>  6 ca        2020-03-06    18                   5.08        9.17
#>  7 ca        2020-03-07    26                   7.87       11.6 
#>  8 ca        2020-03-08    19                   7.87       13.4 
#>  9 ca        2020-03-09    23                   7.34       16.1 
#> 10 ca        2020-03-10    22                   6.02       18.4 
#> # ℹ 4,016 more rows
…
      list(tibble(
        cases_7sd = sd(x$cases, na.rm = TRUE),
        cases_7dav = mean(x$cases, na.rm = TRUE)
      ))
    },
    .window_size = 7
  ) %>%
  ungroup() %>%
  select(geo_value, time_value, slide_value)
#> An `epi_df` object, 4,026 x 3 with metadata:
#> * geo_type  = state
#> * time_type = day
#> * as_of     = 2024-03-20
#> 
#> # A tibble: 4,026 × 3
#>    geo_value time_value slide_value     
#>    <chr>     <date>     <list>          
#>  1 ca        2020-03-01 <tibble [1 × 2]>
#>  2 ca        2020-03-02 <tibble [1 × 2]>
#>  3 ca        2020-03-03 <tibble [1 × 2]>
#>  4 ca        2020-03-04 <tibble [1 × 2]>
#>  5 ca        2020-03-05 <tibble [1 × 2]>
#>  6 ca        2020-03-06 <tibble [1 × 2]>
#>  7 ca        2020-03-07 <tibble [1 × 2]>
#>  8 ca        2020-03-08 <tibble [1 × 2]>
#>  9 ca        2020-03-09 <tibble [1 × 2]>
#> 10 ca        2020-03-10 <tibble [1 × 2]>
#> # ℹ 4,016 more rows

# Use the geo_value or the ref_time_value in the slide computation
cases_deaths_subset %>%
  epi_slide(~ .x$geo_value[[1]], .window_size = 7)
#> An `epi_df` object, 4,026 x 7 with metadata:
#> * geo_type  = state
#> * time_type = day
#> * as_of     = 2024-03-20
#> 
#> # A tibble: 4,026 × 7
#>    geo_value time_value case_rate_7d_av death_rate_7d_av cases cases_7d_av
#>    <chr>     <date>               <dbl>            <dbl> <dbl>       <dbl>
#>  1 ca        2020-03-01         0.00327         0            6        1.29
#>  2 ca        2020-03-02         0.00435         0            4        1.71
#>  3 ca        2020-03-03         0.00617         0            6        2.43
#>  4 ca        2020-03-04         0.00980         0.000363    11        3.86
#>  5 ca        2020-03-05         0.0134          0.000363    10        5.29
#>  6 ca        2020-03-06         0.0200          0.000363    18        7.86
#>  7 ca        2020-03-07         0.0294          0.000363    26       11.6 
#>  8 ca        2020-03-08         0.0341          0.000363    19       13.4 
#>  9 ca        2020-03-09         0.0410          0.000726    23       16.1 
#> 10 ca        2020-03-10         0.0468          0.000726    22       18.4 
#> # ℹ 4,016 more rows
#> # ℹ 1 more variable: slide_value <chr>

cases_deaths_subset %>%
  epi_slide(~ .x$time_value[[1]], .window_size = 7)
#> An `epi_df` object, 4,026 x 7 with metadata:
#> * geo_type  = state
#> * time_type = day
#> * as_of     = 2024-03-20
#> 
#> # A tibble: 4,026 × 7
#>    geo_value time_value case_rate_7d_av death_rate_7d_av cases cases_7d_av
#>    <chr>     <date>               <dbl>            <dbl> <dbl>       <dbl>
#>  1 ca        2020-03-01         0.00327         0            6        1.29
#>  2 ca        2020-03-02         0.00435         0            4        1.71
#>  3 ca        2020-03-03         0.00617         0            6        2.43
#>  4 ca        2020-03-04         0.00980         0.000363    11        3.86
#>  5 ca        2020-03-05         0.0134          0.000363    10        5.29
#>  6 ca        2020-03-06         0.0200          0.000363    18        7.86
#>  7 ca        2020-03-07         0.0294          0.000363    26       11.6 
#>  8 ca        2020-03-08         0.0341          0.000363    19       13.4 
#>  9 ca        2020-03-09         0.0410          0.000726    23       16.1 
#> 10 ca        2020-03-10         0.0468          0.000726    22       18.4 
#> # ℹ 4,016 more rows
#> # ℹ 1 more variable: slide_value <date>
…
