Optimized slide functions for common cases — epi_slide_opt • epiprocess
…
    epi_slide for the more general slide function

    Examples

# Compute a 7-day trailing average on cases.
cases_deaths_subset %>%
  group_by(geo_value) %>%
  epi_slide_opt(cases, .f = data.table::frollmean, .window_size = 7) %>%
  dplyr::select(geo_value, time_value, cases, cases_7dav = slide_value_cases)
#> An `epi_df` object, 4,026 x 4 with metadata:
#> * geo_type  = state
#> * time_type = day
#> * as_of     = 2024-03-20
#> 
#> # A tibble: 4,026 × 4
#> # Groups:   geo_value [6]
#>    geo_value time_value cases cases_7dav
#>  * <chr>     <date>     <dbl>      <dbl>
#>  1 ca        2020-03-01     6       NA  
#>  2 ca        2020-03-02     4       NA  
#>  3 ca        2020-03-03     6       NA  
#>  4 ca        2020-03-04    11       NA  
#>  5 ca        2020-03-05    10       NA  
#>  6 ca        2020-03-06    18       NA  
#>  7 ca        2020-03-07    26       11.6
#>  8 ca        2020-03-08    19       13.4
#>  9 ca        2020-03-09    23       16.1
#> 10 ca        2020-03-10    22       18.4
#> # ℹ 4,016 more rows
…
# to allow partially-missing windows.
cases_deaths_subset %>%
  group_by(geo_value) %>%
  epi_slide_opt(
    cases,
    .f = data.table::frollmean, .window_size = 7,
    algo = "exact", hasNA = TRUE, na.rm = TRUE
  ) %>%
  dplyr::select(geo_value, time_value, cases, cases_7dav = slide_value_cases)
#> An `epi_df` object, 4,026 x 4 with metadata:
#> * geo_type  = state
#> * time_type = day
#> * as_of     = 2024-03-20
#> 
#> # A tibble: 4,026 × 4
#> # Groups:   geo_value [6]
#>    geo_value time_value cases cases_7dav
#>  * <chr>     <date>     <dbl>      <dbl>
#>  1 ca        2020-03-01     6       6   
#>  2 ca        2020-03-02     4       5   
#>  3 ca        2020-03-03     6       5.33
#>  4 ca        2020-03-04    11       6.75
#>  5 ca        2020-03-05    10       7.4 
#>  6 ca        2020-03-06    18       9.17
#>  7 ca        2020-03-07    26      11.6 
#>  8 ca        2020-03-08    19      13.4 
#>  9 ca        2020-03-09    23      16.1 
#> 10 ca        2020-03-10    22      18.4 
#> # ℹ 4,016 more rows
# Compute a 7-day trailing average on cases.
cases_deaths_subset %>%
  group_by(geo_value) %>%
  epi_slide_mean(cases, .window_size = 7) %>%
  dplyr::select(geo_value, time_value, cases, cases_7dav = slide_value_cases)
#> An `epi_df` object, 4,026 x 4 with metadata:
#> * geo_type  = state
#> * time_type = day
#> * as_of     = 2024-03-20
#> 
#> # A tibble: 4,026 × 4
#> # Groups:   geo_value [6]
#>    geo_value time_value cases cases_7dav
#>  * <chr>     <date>     <dbl>      <dbl>
#>  1 ca        2020-03-01     6       NA  
#>  2 ca        2020-03-02     4       NA  
#>  3 ca        2020-03-03     6       NA  
#>  4 ca        2020-03-04    11       NA  
#>  5 ca        2020-03-05    10       NA  
#>  6 ca        2020-03-06    18       NA  
#>  7 ca        2020-03-07    26       11.6
#>  8 ca        2020-03-08    19       13.4
#>  9 ca        2020-03-09    23       16.1
#> 10 ca        2020-03-10    22       18.4
#> # ℹ 4,016 more rows
…
# to allow partially-missing windows.
cases_deaths_subset %>%
  group_by(geo_value) %>%
  epi_slide_mean(
    cases,
    .window_size = 7,
    na.rm = TRUE, algo = "exact", hasNA = TRUE
  ) %>%
  dplyr::select(geo_value, time_value, cases, cases_7dav = slide_value_cases)
#> An `epi_df` object, 4,026 x 4 with metadata:
#> * geo_type  = state
#> * time_type = day
#> * as_of     = 2024-03-20
#> 
#> # A tibble: 4,026 × 4
#> # Groups:   geo_value [6]
#>    geo_value time_value cases cases_7dav
#>  * <chr>     <date>     <dbl>      <dbl>
#>  1 ca        2020-03-01     6       6   
#>  2 ca        2020-03-02     4       5   
#>  3 ca        2020-03-03     6       5.33
#>  4 ca        2020-03-04    11       6.75
#>  5 ca        2020-03-05    10       7.4 
#>  6 ca        2020-03-06    18       9.17
#>  7 ca        2020-03-07    26      11.6 
#>  8 ca        2020-03-08    19      13.4 
#>  9 ca        2020-03-09    23      16.1 
#> 10 ca        2020-03-10    22      18.4 
#> # ℹ 4,016 more rows
# Compute a 7-day trailing sum on cases.
cases_deaths_subset %>%
  group_by(geo_value) %>%
  epi_slide_sum(cases, .window_size = 7) %>%
  dplyr::select(geo_value, time_value, cases, cases_7dsum = slide_value_cases)
#> An `epi_df` object, 4,026 x 4 with metadata:
#> * geo_type  = state
#> * time_type = day
#> * as_of     = 2024-03-20
#> 
#> # A tibble: 4,026 × 4
#> # Groups:   geo_value [6]
#>    geo_value time_value cases cases_7dsum
#>  * <chr>     <date>     <dbl>       <dbl>
#>  1 ca        2020-03-01     6          NA
#>  2 ca        2020-03-02     4          NA
#>  3 ca        2020-03-03     6          NA
#>  4 ca        2020-03-04    11          NA
#>  5 ca        2020-03-05    10          NA
#>  6 ca        2020-03-06    18          NA
#>  7 ca        2020-03-07    26          81
#>  8 ca        2020-03-08    19          94
#>  9 ca        2020-03-09    23         113
#> 10 ca        2020-03-10    22         129
#> # ℹ 4,016 more rows
…
