Generate a snapshot from an epi_archive object — epix_as_of • epiprocess
…
    An epi_df object.

    Examples

epix_as_of(
  archive_cases_dv_subset,
  version = max(archive_cases_dv_subset$DT$version)
)
#> An `epi_df` object, 2,192 x 4 with metadata:
#> * geo_type  = state
#> * time_type = day
#> * as_of     = 2021-12-01
#> 
#> # A tibble: 2,192 × 4
#>    geo_value time_value percent_cli case_rate_7d_av
#>  * <chr>     <date>           <dbl>           <dbl>
#>  1 ca        2020-06-01        2.75            6.84
#>  2 ca        2020-06-02        2.57            6.82
#>  3 ca        2020-06-03        2.48            6.66
#>  4 ca        2020-06-04        2.41            6.98
#>  5 ca        2020-06-05        2.57            6.97
#>  6 ca        2020-06-06        2.63            6.66
#>  7 ca        2020-06-07        2.73            6.74
#>  8 ca        2020-06-08        3.04            6.67
#>  9 ca        2020-06-09        2.97            6.81
#> 10 ca        2020-06-10        2.99            7.13
#> # ℹ 2,182 more rows

range(archive_cases_dv_subset$DT$version) # 2020-06-02 -- 2021-12-01
#> [1] "2020-06-02" "2021-12-01"

epix_as_of(archive_cases_dv_subset, as.Date("2020-06-12"))
#> An `epi_df` object, 44 x 4 with metadata:
#> * geo_type  = state
#> * time_type = day
#> * as_of     = 2020-06-12
#> 
#> # A tibble: 44 × 4
#>    geo_value time_value percent_cli case_rate_7d_av
#>  * <chr>     <date>           <dbl>           <dbl>
#>  1 ca        2020-06-01        2.23            6.63
#>  2 ca        2020-06-02        2.06            6.45
#>  3 ca        2020-06-03        1.90            6.62
#>  4 ca        2020-06-04        1.79            6.64
#>  5 ca        2020-06-05        1.83            6.91
#>  6 ca        2020-06-06        1.86            6.76
#>  7 ca        2020-06-07        1.78            6.75
#>  8 ca        2020-06-08        1.90            6.90
#>  9 ca        2020-06-09       NA               7.02
#> 10 ca        2020-06-10       NA               7.36
#> # ℹ 34 more rows
…
epix_as_of(archive_cases_dv_subset2, max(archive_cases_dv_subset$DT$version))
#> Warning: Getting data as of some recent version which could still be overwritten (under
#> routine circumstances) without assigning a new version number (a.k.a.
#> "clobbered").  Thus, the snapshot that we produce here should not be expected
#> to be reproducible later. See `?epi_archive` for more info and `?epix_as_of` on
#> how to muffle.
#> An `epi_df` object, 2,192 x 4 with metadata:
#> * geo_type  = state
#> * time_type = day
#> * as_of     = 2021-12-01
#> 
#> # A tibble: 2,192 × 4
#>    geo_value time_value percent_cli case_rate_7d_av
#>  * <chr>     <date>           <dbl>           <dbl>
#>  1 ca        2020-06-01        2.75            6.84
#>  2 ca        2020-06-02        2.57            6.82
#>  3 ca        2020-06-03        2.48            6.66
#>  4 ca        2020-06-04        2.41            6.98
#>  5 ca        2020-06-05        2.57            6.97
#>  6 ca        2020-06-06        2.63            6.66
#>  7 ca        2020-06-07        2.73            6.74
#>  8 ca        2020-06-08        3.04            6.67
#>  9 ca        2020-06-09        2.97            6.81
#> 10 ca        2020-06-10        2.99            7.13
#> # ℹ 2,182 more rows
…
