Take each requested (group and) version in an archive, run a computation (e.g., forecast) — epix_slide • epiprocess
…
#>  8 2020-09-09 2020-09-06                   3 days                     
#>  9 2020-09-10 2020-09-07                   3 days                     
#> 10 2020-09-11 2020-09-08                   3 days                     
#> 11 2020-09-12 2020-09-09                   3 days                     
#> 12 2020-09-13 2020-09-10                   3 days                     
#> 13 2020-09-14 2020-09-11                   3 days                     
#> 14 2020-09-15 2020-09-12                   3 days                     
archive_cases_dv_subset %>%
  group_by(geo_value) %>%
  epix_slide(
    percent_cli_max_time = max(time_value[!is.na(percent_cli)]),
    percent_cli_rpt_lag = .version - percent_cli_max_time,
    .versions = requested_versions
  )
#> # A tibble: 56 × 4
#> # Groups:   geo_value [4]
#>    geo_value version    percent_cli_max_time percent_cli_rpt_lag
#>  * <chr>     <date>     <date>               <drtn>             
#>  1 ca        2020-09-02 2020-08-30           3 days             
#>  2 fl        2020-09-02 2020-08-30           3 days             
#>  3 ny        2020-09-02 2020-08-30           3 days             
#>  4 tx        2020-09-02 2020-08-30           3 days             
#>  5 ca        2020-09-03 2020-08-31           3 days             
#>  6 fl        2020-09-03 2020-08-31           3 days             
#>  7 ny        2020-09-03 2020-08-31           3 days             
#>  8 tx        2020-09-03 2020-08-31           3 days             
#>  9 ca        2020-09-04 2020-09-01           3 days             
#> 10 fl        2020-09-04 2020-09-01           3 days             
#> # ℹ 46 more rows
…
case_death_rate_archive %>%
  epix_slide(
    .versions = as.Date(c("2021-10-01", "2021-10-08")),
    function(x, g, v) {
      epipredict::arx_forecaster(
        x,
        outcome = "death_rate",
        predictors = c("death_rate_7d_av", "case_rate_7d_av")
      )$predictions
    }
  )
#> Registered S3 method overwritten by 'epipredict':
#>   method            from   
#>   print.step_naomit recipes
#> # A tibble: 112 × 6
#>    version    geo_value  .pred .pred_distn forecast_date target_date
#>  * <date>     <chr>      <dbl>   <qtls(7)> <date>        <date>     
#>  1 2021-10-01 ak        1.95        [1.95] 2021-09-30    2021-10-07 
#>  2 2021-10-01 al        1.36        [1.36] 2021-09-30    2021-10-07 
#>  3 2021-10-01 ar        0.572      [0.572] 2021-09-30    2021-10-07 
#>  4 2021-10-01 as        0.0128    [0.0128] 2021-09-30    2021-10-07 
#>  5 2021-10-01 az        0.537      [0.537] 2021-09-30    2021-10-07 
#>  6 2021-10-01 ca        0.260       [0.26] 2021-09-30    2021-10-07 
#>  7 2021-10-01 co        0.308      [0.308] 2021-09-30    2021-10-07 
#>  8 2021-10-01 ct        0.406      [0.406] 2021-09-30    2021-10-07 
#>  9 2021-10-01 dc        0.147      [0.147] 2021-09-30    2021-10-07 
#> 10 2021-10-01 de        0.382      [0.382] 2021-09-30    2021-10-07 
#> # ℹ 102 more rows
…
