Estimate growth rate — growth_rate • epiprocess
…
    Examples

# COVID cases growth rate by state using default method relative change
jhu_csse_daily_subset %>%
  group_by(geo_value) %>%
  mutate(cases_gr = growth_rate(x = time_value, y = cases))
#> An `epi_df` object, 4,026 x 7 with metadata:
#> * geo_type  = state
#> * time_type = day
#> * as_of     = 2024-08-23 02:40:48.296938
#> 
#> # A tibble: 4,026 × 7
#> # Groups:   geo_value [6]
#>    geo_value time_value cases cases_7d_av case_rate_7d_av death_rate_7d_av
#>  * <chr>     <date>     <dbl>       <dbl>           <dbl>            <dbl>
#>  1 ca        2020-03-01     6        1.29         0.00327         0       
#>  2 ca        2020-03-02     4        1.71         0.00435         0       
#>  3 ca        2020-03-03     6        2.43         0.00617         0       
#>  4 ca        2020-03-04    11        3.86         0.00980         0.000363
#>  5 ca        2020-03-05    10        5.29         0.0134          0.000363
#>  6 ca        2020-03-06    18        7.86         0.0200          0.000363
#>  7 ca        2020-03-07    26       11.6          0.0294          0.000363
#>  8 ca        2020-03-08    19       13.4          0.0341          0.000363
#>  9 ca        2020-03-09    23       16.1          0.0410          0.000726
#> 10 ca        2020-03-10    22       18.4          0.0468          0.000726
#> # ℹ 4,016 more rows
#> # ℹ 1 more variable: cases_gr <dbl>
…
  group_by(geo_value) %>%
  mutate(gr_poly = growth_rate(x = time_value, y = cases, log_scale = TRUE, ord = 4, k = 6))
#> Warning: There were 3 warnings in `mutate()`.
#> The first warning was:
#> ℹ In argument: `gr_poly = growth_rate(...)`.
#> ℹ In group 1: `geo_value = "ca"`.
#> Caused by warning in `log()`:
#> ! NaNs produced
#> ℹ Run `dplyr::last_dplyr_warnings()` to see the 2 remaining warnings.
#> An `epi_df` object, 4,026 x 7 with metadata:
#> * geo_type  = state
#> * time_type = day
#> * as_of     = 2024-08-23 02:40:48.296938
#> 
#> # A tibble: 4,026 × 7
#> # Groups:   geo_value [6]
#>    geo_value time_value cases cases_7d_av case_rate_7d_av death_rate_7d_av
#>  * <chr>     <date>     <dbl>       <dbl>           <dbl>            <dbl>
#>  1 ca        2020-03-01     6        1.29         0.00327         0       
#>  2 ca        2020-03-02     4        1.71         0.00435         0       
#>  3 ca        2020-03-03     6        2.43         0.00617         0       
#>  4 ca        2020-03-04    11        3.86         0.00980         0.000363
#>  5 ca        2020-03-05    10        5.29         0.0134          0.000363
#>  6 ca        2020-03-06    18        7.86         0.0200          0.000363
#>  7 ca        2020-03-07    26       11.6          0.0294          0.000363
#>  8 ca        2020-03-08    19       13.4          0.0341          0.000363
#>  9 ca        2020-03-09    23       16.1          0.0410          0.000726
#> 10 ca        2020-03-10    22       18.4          0.0468          0.000726
#> # ℹ 4,016 more rows
#> # ℹ 1 more variable: gr_poly <dbl>
…
