JHU daily COVID-19 cases and deaths rates from all states — covid_case_death_rates_extended • epiprocess
…
    Examples

# Since this is a re-exported dataset, it cannot be loaded using
# the `data()` function. `data()` looks for a file of the same name
# in the `data/` directory, which doesn't exist in this package.
# works
epiprocess::covid_case_death_rates_extended
#> An `epi_df` object, 37,576 x 4 with metadata:
#> * geo_type  = state
#> * time_type = day
#> * as_of     = 2022-05-31
#> 
#> # A tibble: 37,576 × 4
#>    geo_value time_value case_rate death_rate
#>  * <chr>     <date>         <dbl>      <dbl>
#>  1 ak        2020-03-01   0                0
#>  2 al        2020-03-01   0                0
#>  3 ar        2020-03-01   0                0
#>  4 as        2020-03-01   0                0
#>  5 az        2020-03-01   0                0
#>  6 ca        2020-03-01   0.00327          0
#>  7 co        2020-03-01   0                0
#>  8 ct        2020-03-01   0                0
#>  9 dc        2020-03-01   0                0
#> 10 de        2020-03-01   0                0
#> # ℹ 37,566 more rows

# works
library(epiprocess)
covid_case_death_rates_extended
#> An `epi_df` object, 37,576 x 4 with metadata:
#> * geo_type  = state
#> * time_type = day
#> * as_of     = 2022-05-31
#> 
#> # A tibble: 37,576 × 4
#>    geo_value time_value case_rate death_rate
#>  * <chr>     <date>         <dbl>      <dbl>
#>  1 ak        2020-03-01   0                0
#>  2 al        2020-03-01   0                0
#>  3 ar        2020-03-01   0                0
#>  4 as        2020-03-01   0                0
#>  5 az        2020-03-01   0                0
#>  6 ca        2020-03-01   0.00327          0
#>  7 co        2020-03-01   0                0
#>  8 ct        2020-03-01   0                0
#>  9 dc        2020-03-01   0                0
#> 10 de        2020-03-01   0                0
#> # ℹ 37,566 more rows
…
