Subset of JHU daily COVID-19 cases from counties in Massachusetts and Vermont — covid_incidence_county_subset • epiprocess
…
    Examples

# Since this is a re-exported dataset, it cannot be loaded using
# the `data()` function. `data()` looks for a file of the same name
# in the `data/` directory, which doesn't exist in this package.
# works
epiprocess::covid_incidence_county_subset
#> An `epi_df` object, 16,212 x 5 with metadata:
#> * geo_type  = county
#> * time_type = day
#> * as_of     = 2024-03-20
#> 
#> # A tibble: 16,212 × 5
#>    geo_value time_value cases county_name       state_name   
#>  * <chr>     <date>     <dbl> <chr>             <chr>        
#>  1 25001     2020-06-01     4 Barnstable County Massachusetts
#>  2 25003     2020-06-01     0 Berkshire County  Massachusetts
#>  3 25005     2020-06-01    78 Bristol County    Massachusetts
#>  4 25007     2020-06-01     0 Dukes County      Massachusetts
#>  5 25009     2020-06-01    92 Essex County      Massachusetts
#>  6 25011     2020-06-01     0 Franklin County   Massachusetts
#>  7 25013     2020-06-01    35 Hampden County    Massachusetts
#>  8 25015     2020-06-01     4 Hampshire County  Massachusetts
#>  9 25017     2020-06-01    98 Middlesex County  Massachusetts
#> 10 25019     2020-06-01     0 Nantucket County  Massachusetts
#> # ℹ 16,202 more rows

# works
library(epiprocess)
covid_incidence_county_subset
#> An `epi_df` object, 16,212 x 5 with metadata:
#> * geo_type  = county
#> * time_type = day
#> * as_of     = 2024-03-20
#> 
#> # A tibble: 16,212 × 5
#>    geo_value time_value cases county_name       state_name   
#>  * <chr>     <date>     <dbl> <chr>             <chr>        
#>  1 25001     2020-06-01     4 Barnstable County Massachusetts
#>  2 25003     2020-06-01     0 Berkshire County  Massachusetts
#>  3 25005     2020-06-01    78 Bristol County    Massachusetts
#>  4 25007     2020-06-01     0 Dukes County      Massachusetts
#>  5 25009     2020-06-01    92 Essex County      Massachusetts
#>  6 25011     2020-06-01     0 Franklin County   Massachusetts
#>  7 25013     2020-06-01    35 Hampden County    Massachusetts
#>  8 25015     2020-06-01     4 Hampshire County  Massachusetts
#>  9 25017     2020-06-01    98 Middlesex County  Massachusetts
#> 10 25019     2020-06-01     0 Nantucket County  Massachusetts
#> # ℹ 16,202 more rows
…
