Detect outliers — detect_outlr • epiprocess
…
  unnest(outlier_info)
# Detect outliers based on a rolling median
covid_incidence_outliers %>%
  dplyr::select(geo_value, time_value, cases) %>%
  as_epi_df() %>%
  group_by(geo_value) %>%
  mutate(outlier_info = detect_outlr_rm(
    x = time_value, y = cases
  ))
#> An `epi_df` object, 730 x 4 with metadata:
#> * geo_type  = state
#> * time_type = day
#> * as_of     = 2021-10-28
#> 
#> # A tibble: 730 × 4
#> # Groups:   geo_value [2]
#>    geo_value time_value cases outlier_info$lower $upper $replacement
#>    <chr>     <date>     <dbl>              <dbl>  <dbl>        <dbl>
#>  1 fl        2020-06-01   667               530   2010           667
#>  2 nj        2020-06-01   486               150.   840.          486
#>  3 fl        2020-06-02   617               582.  1992.          617
#>  4 nj        2020-06-02   658               210.   771.          658
#>  5 fl        2020-06-03  1317               635   1975          1317
#>  6 nj        2020-06-03   541               270    702           541
#>  7 fl        2020-06-04  1419               713   1909          1419
#>  8 nj        2020-06-04   478               174.   790.          478
#>  9 fl        2020-06-05  1305               553   2081          1305
#> 10 nj        2020-06-05   825               118.   838.          825
#> # ℹ 720 more rows
# Detects outliers based on a seasonal-trend decomposition using LOESS
covid_incidence_outliers %>%
  dplyr::select(geo_value, time_value, cases) %>%
  as_epi_df() %>%
  group_by(geo_value) %>%
  mutate(outlier_info = detect_outlr_stl(
    x = time_value, y = cases,
    seasonal_period = 7 # weekly seasonality for daily data
  ))
#> An `epi_df` object, 730 x 4 with metadata:
#> * geo_type  = state
#> * time_type = day
#> * as_of     = 2021-10-28
#> 
#> # A tibble: 730 × 4
#> # Groups:   geo_value [2]
#>    geo_value time_value cases outlier_info$lower $upper $replacement
#>    <chr>     <date>     <dbl>              <dbl>  <dbl>        <dbl>
#>  1 fl        2020-06-01   667             -1193.  1233.          667
#>  2 nj        2020-06-01   486               281.   762.          486
#>  3 fl        2020-06-02   617              -691.  1890.          617
#>  4 nj        2020-06-02   658               317.   891.          658
#>  5 fl        2020-06-03  1317              -144.  2396.         1317
#>  6 nj        2020-06-03   541               292.   809.          541
#>  7 fl        2020-06-04  1419               260.  2696.         1419
#>  8 nj        2020-06-04   478               315.   792.          478
#>  9 fl        2020-06-05  1305               548.  2950.         1305
#> 10 nj        2020-06-05   825               382.   835.          825
#> # ℹ 720 more rows
…
