Detect outliers based on an STL decomposition — detect_outlr_stl • epiprocess
…
incidence_num_outlier_example %>%
  dplyr::select(geo_value, time_value, cases) %>%
  as_epi_df() %>%
  group_by(geo_value) %>%
  mutate(outlier_info = detect_outlr_stl(
    x = time_value, y = cases,
    seasonal_period = 7
  )) %>% # weekly seasonality for daily data
  unnest(outlier_info)
#> An `epi_df` object, 730 x 6 with metadata:
#> * geo_type  = state
#> * time_type = day
#> * as_of     = 2022-05-21 22:17:14.962335
#> 
#> # A tibble: 730 × 6
#> # Groups:   geo_value [2]
#>    geo_value time_value cases  lower upper replacement
#>  * <chr>     <date>     <dbl>  <dbl> <dbl>       <dbl>
#>  1 fl        2020-06-01   667 -1193. 1233.         667
#>  2 nj        2020-06-01   486   281.  762.         486
#>  3 fl        2020-06-02   617  -691. 1890.         617
#>  4 nj        2020-06-02   658   317.  891.         658
#>  5 fl        2020-06-03  1317  -144. 2396.        1317
#>  6 nj        2020-06-03   541   292.  809.         541
#>  7 fl        2020-06-04  1419   260. 2696.        1419
#>  8 nj        2020-06-04   478   315.  792.         478
#>  9 fl        2020-06-05  1305   548. 2950.        1305
#> 10 nj        2020-06-05   825   382.  835.         825
#> # ℹ 720 more rows
…
