Detect outliers based on a rolling median — detect_outlr_rm • epiprocess
…
# Detect outliers based on a rolling median
incidence_num_outlier_example %>%
  dplyr::select(geo_value, time_value, cases) %>%
  as_epi_df() %>%
  group_by(geo_value) %>%
  mutate(outlier_info = detect_outlr_rm(
    x = time_value, y = cases
  )) %>%
  unnest(outlier_info)
#> An `epi_df` object, 730 x 6 with metadata:
#> * geo_type  = state
#> * time_type = day
#> * as_of     = 2022-05-21 22:17:14.962335
#> 
#> # A tibble: 730 × 6
#> # Groups:   geo_value [2]
#>    geo_value time_value cases lower upper replacement
#>  * <chr>     <date>     <dbl> <dbl> <dbl>       <dbl>
#>  1 fl        2020-06-01   667  530  2010          667
#>  2 nj        2020-06-01   486  150.  840.         486
#>  3 fl        2020-06-02   617  582. 1992.         617
#>  4 nj        2020-06-02   658  210.  771.         658
#>  5 fl        2020-06-03  1317  635  1975         1317
#>  6 nj        2020-06-03   541  270   702          541
#>  7 fl        2020-06-04  1419  713  1909         1419
#>  8 nj        2020-06-04   478  174.  790.         478
#>  9 fl        2020-06-05  1305  553  2081         1305
#> 10 nj        2020-06-05   825  118.  838.         825
#> # ℹ 720 more rows
…
