Optimized slide function for performing rolling sums on an epi_df object — epi_slide_sum • epiprocess
…
    Examples

# slide a 7-day trailing sum formula on cases
jhu_csse_daily_subset %>%
  group_by(geo_value) %>%
  epi_slide_sum(cases, before = 6) %>%
  # Remove a nonessential var. to ensure new col is printed
  dplyr::select(geo_value, time_value, cases, cases_7dsum = slide_value_cases) %>%
  ungroup()
#> An `epi_df` object, 4,026 x 4 with metadata:
#> * geo_type  = state
#> * time_type = day
#> * as_of     = 2024-01-26 17:27:32.755949
#> 
#> # A tibble: 4,026 × 4
#>    geo_value time_value cases cases_7dsum
#>  * <chr>     <date>     <dbl>       <dbl>
#>  1 ca        2020-03-01     6          NA
#>  2 ca        2020-03-02     4          NA
#>  3 ca        2020-03-03     6          NA
#>  4 ca        2020-03-04    11          NA
#>  5 ca        2020-03-05    10          NA
#>  6 ca        2020-03-06    18          NA
#>  7 ca        2020-03-07    26          81
#>  8 ca        2020-03-08    19          94
#>  9 ca        2020-03-09    23         113
#> 10 ca        2020-03-10    22         129
#> # ℹ 4,016 more rows
…
