Optimized slide function for performing rolling averages on an epi_df object — epi_slide_mean • epiprocess
…
    Examples

# slide a 7-day trailing average formula on cases
jhu_csse_daily_subset %>%
  group_by(geo_value) %>%
  epi_slide_mean(cases, .window_size = 7) %>%
  # Remove a nonessential var. to ensure new col is printed
  dplyr::select(geo_value, time_value, cases, cases_7dav = slide_value_cases) %>%
  ungroup()
#> An `epi_df` object, 4,026 x 4 with metadata:
#> * geo_type  = state
#> * time_type = day
#> * as_of     = 2024-08-23 02:40:48.296938
#> 
#> # A tibble: 4,026 × 4
#>    geo_value time_value cases cases_7dav
#>  * <chr>     <date>     <dbl>      <dbl>
#>  1 ca        2020-03-01     6       NA  
#>  2 ca        2020-03-02     4       NA  
#>  3 ca        2020-03-03     6       NA  
#>  4 ca        2020-03-04    11       NA  
#>  5 ca        2020-03-05    10       NA  
#>  6 ca        2020-03-06    18       NA  
#>  7 ca        2020-03-07    26       11.6
#>  8 ca        2020-03-08    19       13.4
#>  9 ca        2020-03-09    23       16.1
#> 10 ca        2020-03-10    22       18.4
#> # ℹ 4,016 more rows
…
  group_by(geo_value) %>%
  epi_slide_mean(
    cases,
    .window_size = 7,
    # `frollmean` options
    na.rm = TRUE, algo = "exact", hasNA = TRUE
  ) %>%
  dplyr::select(geo_value, time_value, cases, cases_7dav = slide_value_cases) %>%
  ungroup()
#> An `epi_df` object, 4,026 x 4 with metadata:
#> * geo_type  = state
#> * time_type = day
#> * as_of     = 2024-08-23 02:40:48.296938
#> 
#> # A tibble: 4,026 × 4
#>    geo_value time_value cases cases_7dav
#>  * <chr>     <date>     <dbl>      <dbl>
#>  1 ca        2020-03-01     6       6   
#>  2 ca        2020-03-02     4       5   
#>  3 ca        2020-03-03     6       5.33
#>  4 ca        2020-03-04    11       6.75
#>  5 ca        2020-03-05    10       7.4 
#>  6 ca        2020-03-06    18       9.17
#>  7 ca        2020-03-07    26      11.6 
#>  8 ca        2020-03-08    19      13.4 
#>  9 ca        2020-03-09    23      16.1 
#> 10 ca        2020-03-10    22      18.4 
#> # ℹ 4,016 more rows

# slide a 7-day leading average
jhu_csse_daily_subset %>%
  group_by(geo_value) %>%
  epi_slide_mean(cases, .window_size = 7, .align = "right") %>%
  # Remove a nonessential var. to ensure new col is printed
  dplyr::select(geo_value, time_value, cases, cases_7dav = slide_value_cases) %>%
  ungroup()
#> An `epi_df` object, 4,026 x 4 with metadata:
#> * geo_type  = state
#> * time_type = day
#> * as_of     = 2024-08-23 02:40:48.296938
#> 
#> # A tibble: 4,026 × 4
#>    geo_value time_value cases cases_7dav
#>  * <chr>     <date>     <dbl>      <dbl>
#>  1 ca        2020-03-01     6       NA  
#>  2 ca        2020-03-02     4       NA  
#>  3 ca        2020-03-03     6       NA  
#>  4 ca        2020-03-04    11       NA  
#>  5 ca        2020-03-05    10       NA  
#>  6 ca        2020-03-06    18       NA  
#>  7 ca        2020-03-07    26       11.6
#>  8 ca        2020-03-08    19       13.4
#>  9 ca        2020-03-09    23       16.1
#> 10 ca        2020-03-10    22       18.4
#> # ℹ 4,016 more rows

# slide a 7-day center-aligned average
jhu_csse_daily_subset %>%
  group_by(geo_value) %>%
  epi_slide_mean(cases, .window_size = 7, .align = "center") %>%
  # Remove a nonessential var. to ensure new col is printed
  dplyr::select(geo_value, time_value, cases, cases_7dav = slide_value_cases) %>%
  ungroup()
#> An `epi_df` object, 4,026 x 4 with metadata:
#> * geo_type  = state
#> * time_type = day
#> * as_of     = 2024-08-23 02:40:48.296938
#> 
#> # A tibble: 4,026 × 4
#>    geo_value time_value cases cases_7dav
#>  * <chr>     <date>     <dbl>      <dbl>
#>  1 ca        2020-03-01     6       NA  
#>  2 ca        2020-03-02     4       NA  
#>  3 ca        2020-03-03     6       NA  
#>  4 ca        2020-03-04    11       11.6
#>  5 ca        2020-03-05    10       13.4
#>  6 ca        2020-03-06    18       16.1
#>  7 ca        2020-03-07    26       18.4
#>  8 ca        2020-03-08    19       20.4
#>  9 ca        2020-03-09    23       25.1
#> 10 ca        2020-03-10    22       30.1
#> # ℹ 4,016 more rows

# slide a 14-day center-aligned average
jhu_csse_daily_subset %>%
  group_by(geo_value) %>%
  epi_slide_mean(cases, .window_size = 14, .align = "center") %>%
  # Remove a nonessential var. to ensure new col is printed
  dplyr::select(geo_value, time_value, cases, cases_14dav = slide_value_cases) %>%
  ungroup()
#> An `epi_df` object, 4,026 x 4 with metadata:
#> * geo_type  = state
#> * time_type = day
#> * as_of     = 2024-08-23 02:40:48.296938
#> 
#> # A tibble: 4,026 × 4
#>    geo_value time_value cases cases_14dav
#>  * <chr>     <date>     <dbl>       <dbl>
#>  1 ca        2020-03-01     6        NA  
#>  2 ca        2020-03-02     4        NA  
#>  3 ca        2020-03-03     6        NA  
#>  4 ca        2020-03-04    11        NA  
#>  5 ca        2020-03-05    10        NA  
#>  6 ca        2020-03-06    18        NA  
#>  7 ca        2020-03-07    26        NA  
#>  8 ca        2020-03-08    19        23  
#>  9 ca        2020-03-09    23        25.4
#> 10 ca        2020-03-10    22        36.4
#> # ℹ 4,016 more rows
…
