Slide a function over variables in an epi_df object — epi_slide • epiprocess
…
# slide a 7-day trailing average formula on cases
# Simple sliding means and sums are much faster to do using
# the `epi_slide_mean` and `epi_slide_sum` functions instead.
jhu_csse_daily_subset %>%
  group_by(geo_value) %>%
  epi_slide(cases_7dav = mean(cases), before = 6) %>%
  # Remove a nonessential var. to ensure new col is printed
  dplyr::select(geo_value, time_value, cases, cases_7dav) %>%
  ungroup()
#> An `epi_df` object, 4,026 x 4 with metadata:
#> * geo_type  = state
#> * time_type = day
#> * as_of     = 2024-01-26 17:27:32.755949
#> 
#> # A tibble: 4,026 × 4
#>    geo_value time_value cases cases_7dav
#>  * <chr>     <date>     <dbl>      <dbl>
#>  1 ca        2020-03-01     6       6   
#>  2 ca        2020-03-02     4       5   
#>  3 ca        2020-03-03     6       5.33
#>  4 ca        2020-03-04    11       6.75
#>  5 ca        2020-03-05    10       7.4 
#>  6 ca        2020-03-06    18       9.17
#>  7 ca        2020-03-07    26      11.6 
#>  8 ca        2020-03-08    19      13.4 
#>  9 ca        2020-03-09    23      16.1 
#> 10 ca        2020-03-10    22      18.4 
#> # ℹ 4,016 more rows

# slide a 7-day leading average
jhu_csse_daily_subset %>%
  group_by(geo_value) %>%
  epi_slide(cases_7dav = mean(cases), after = 6) %>%
  # Remove a nonessential var. to ensure new col is printed
  dplyr::select(geo_value, time_value, cases, cases_7dav) %>%
  ungroup()
#> An `epi_df` object, 4,026 x 4 with metadata:
#> * geo_type  = state
#> * time_type = day
#> * as_of     = 2024-01-26 17:27:32.755949
#> 
#> # A tibble: 4,026 × 4
#>    geo_value time_value cases cases_7dav
#>  * <chr>     <date>     <dbl>      <dbl>
#>  1 ca        2020-03-01     6       11.6
#>  2 ca        2020-03-02     4       13.4
#>  3 ca        2020-03-03     6       16.1
#>  4 ca        2020-03-04    11       18.4
#>  5 ca        2020-03-05    10       20.4
#>  6 ca        2020-03-06    18       25.1
#>  7 ca        2020-03-07    26       30.1
#>  8 ca        2020-03-08    19       34.4
#>  9 ca        2020-03-09    23       37.3
#> 10 ca        2020-03-10    22       56.7
#> # ℹ 4,016 more rows

# slide a 7-day centre-aligned average
jhu_csse_daily_subset %>%
  group_by(geo_value) %>%
  epi_slide(cases_7dav = mean(cases), before = 3, after = 3) %>%
  # Remove a nonessential var. to ensure new col is printed
  dplyr::select(geo_value, time_value, cases, cases_7dav) %>%
  ungroup()
#> An `epi_df` object, 4,026 x 4 with metadata:
#> * geo_type  = state
#> * time_type = day
#> * as_of     = 2024-01-26 17:27:32.755949
#> 
#> # A tibble: 4,026 × 4
#>    geo_value time_value cases cases_7dav
#>  * <chr>     <date>     <dbl>      <dbl>
#>  1 ca        2020-03-01     6       6.75
#>  2 ca        2020-03-02     4       7.4 
#>  3 ca        2020-03-03     6       9.17
#>  4 ca        2020-03-04    11      11.6 
#>  5 ca        2020-03-05    10      13.4 
#>  6 ca        2020-03-06    18      16.1 
#>  7 ca        2020-03-07    26      18.4 
#>  8 ca        2020-03-08    19      20.4 
#>  9 ca        2020-03-09    23      25.1 
#> 10 ca        2020-03-10    22      30.1 
#> # ℹ 4,016 more rows

# slide a 14-day centre-aligned average
jhu_csse_daily_subset %>%
  group_by(geo_value) %>%
  epi_slide(cases_14dav = mean(cases), before = 6, after = 7) %>%
  # Remove a nonessential var. to ensure new col is printed
  dplyr::select(geo_value, time_value, cases, cases_14dav) %>%
  ungroup()
#> An `epi_df` object, 4,026 x 4 with metadata:
#> * geo_type  = state
#> * time_type = day
#> * as_of     = 2024-01-26 17:27:32.755949
#> 
#> # A tibble: 4,026 × 4
#>    geo_value time_value cases cases_14dav
#>  * <chr>     <date>     <dbl>       <dbl>
#>  1 ca        2020-03-01     6        12.5
#>  2 ca        2020-03-02     4        13.7
#>  3 ca        2020-03-03     6        14.5
#>  4 ca        2020-03-04    11        15.5
#>  5 ca        2020-03-05    10        17.8
#>  6 ca        2020-03-06    18        20.5
#>  7 ca        2020-03-07    26        23  
#>  8 ca        2020-03-08    19        25.4
#>  9 ca        2020-03-09    23        36.4
#> 10 ca        2020-03-10    22        42  
#> # ℹ 4,016 more rows
…
  group_by(geo_value) %>%
  epi_slide(
    a = data.frame(
      cases_2dav = mean(cases),
      cases_2dma = mad(cases)
    ),
    before = 1, as_list_col = TRUE
  ) %>%
  ungroup()
#> An `epi_df` object, 4,026 x 7 with metadata:
#> * geo_type  = state
#> * time_type = day
#> * as_of     = 2024-01-26 17:27:32.755949
#> 
#> # A tibble: 4,026 × 7
#>    geo_value time_value cases cases_7d_av case_rate_7d_av death_rate_7d_av a    
#>  * <chr>     <date>     <dbl>       <dbl>           <dbl>            <dbl> <lis>
#>  1 ca        2020-03-01     6        1.29         0.00327         0        <df> 
#>  2 ca        2020-03-02     4        1.71         0.00435         0        <df> 
#>  3 ca        2020-03-03     6        2.43         0.00617         0        <df> 
#>  4 ca        2020-03-04    11        3.86         0.00980         0.000363 <df> 
#>  5 ca        2020-03-05    10        5.29         0.0134          0.000363 <df> 
#>  6 ca        2020-03-06    18        7.86         0.0200          0.000363 <df> 
#>  7 ca        2020-03-07    26       11.6          0.0294          0.000363 <df> 
#>  8 ca        2020-03-08    19       13.4          0.0341          0.000363 <df> 
#>  9 ca        2020-03-09    23       16.1          0.0410          0.000726 <df> 
#> 10 ca        2020-03-10    22       18.4          0.0468          0.000726 <df> 
#> # ℹ 4,016 more rows
…
