Compute correlations between variables in an epi_df object — epi_cor • epiprocess
…
epi_cor(
  x = jhu_csse_daily_subset,
  var1 = case_rate_7d_av,
  var2 = death_rate_7d_av,
  cor_by = "time_value"
)
#> Warning: There were 3 warnings in `dplyr::summarize()`.
#> The first warning was:
#> ℹ In argument: `cor = cor(x = .data$var1, y = .data$var2, use = use, method =
#>   method)`.
#> ℹ In group 1: `time_value = 2020-03-01`.
#> Caused by warning in `cor()`:
#> ! the standard deviation is zero
#> ℹ Run `dplyr::last_dplyr_warnings()` to see the 2 remaining warnings.
#> # A tibble: 671 × 2
#>    time_value    cor
#>    <date>      <dbl>
#>  1 2020-03-01 NA    
#>  2 2020-03-02 NA    
#>  3 2020-03-03 NA    
#>  4 2020-03-04  0.746
#>  5 2020-03-05  0.549
#>  6 2020-03-06  0.692
#>  7 2020-03-07  0.277
#>  8 2020-03-08 -0.226
#>  9 2020-03-09 -0.195
#> 10 2020-03-10 -0.227
#> # ℹ 661 more rows
# correlation of death rates and lagged case rates
epi_cor(
  x = jhu_csse_daily_subset,
  var1 = case_rate_7d_av,
  var2 = death_rate_7d_av,
  cor_by = time_value,
  dt1 = -2
)
#> Warning: There was 1 warning in `dplyr::summarize()`.
#> ℹ In argument: `cor = cor(x = .data$var1, y = .data$var2, use = use, method =
#>   method)`.
#> ℹ In group 3: `time_value = 2020-03-03`.
#> Caused by warning in `cor()`:
#> ! the standard deviation is zero
#> # A tibble: 671 × 2
#>    time_value    cor
#>    <date>      <dbl>
#>  1 2020-03-01 NA    
#>  2 2020-03-02 NA    
#>  3 2020-03-03 NA    
#>  4 2020-03-04  0.989
#>  5 2020-03-05  0.907
#>  6 2020-03-06  0.746
#>  7 2020-03-07  0.549
#>  8 2020-03-08 -0.158
#>  9 2020-03-09 -0.126
#> 10 2020-03-10 -0.163
#> # ℹ 661 more rows
…
