Slide a function over variables in an epi_archive or grouped_epi_archive — epix_slide • epiprocess
…
# A simple (but not very useful) example (see the archive vignette for a more
# realistic one):
archive_cases_dv_subset %>%
  group_by(geo_value) %>%
  epix_slide(
    f = ~ mean(.x$case_rate_7d_av),
    before = 2,
    ref_time_values = ref_time_values,
    new_col_name = "case_rate_7d_av_recent_av"
  ) %>%
  ungroup()
#> # A tibble: 57 × 3
#>    geo_value time_value case_rate_7d_av_recent_av
#>    <chr>     <date>                         <dbl>
#>  1 NA        2020-06-01                    NaN   
#>  2 ca        2020-06-02                      6.63
#>  3 fl        2020-06-02                      3.38
#>  4 ny        2020-06-02                      6.57
#>  5 tx        2020-06-02                      4.52
#>  6 ca        2020-06-03                      6.54
#>  7 fl        2020-06-03                      3.42
#>  8 ny        2020-06-03                      6.66
#>  9 tx        2020-06-03                      4.75
#> 10 ca        2020-06-04                      6.53
#> # ℹ 47 more rows
…
        time_range = if (nrow(x) == 0L) {
          "0 `time_value`s"
        } else {
          sprintf("%s -- %s", min(x$time_value), max(x$time_value))
        },
        n = nrow(x),
        class1 = class(x)[[1L]]
      )
    },
    before = 5, all_versions = FALSE,
    ref_time_values = ref_time_values, names_sep = NULL
  ) %>%
  ungroup() %>%
  arrange(geo_value, time_value)
#> # A tibble: 57 × 5
#>    geo_value time_value time_range                   n class1
#>    <chr>     <date>     <chr>                    <int> <chr> 
#>  1 ca        2020-06-02 2020-06-01 -- 2020-06-01     1 epi_df
#>  2 ca        2020-06-03 2020-06-01 -- 2020-06-02     2 epi_df
#>  3 ca        2020-06-04 2020-06-01 -- 2020-06-03     3 epi_df
#>  4 ca        2020-06-05 2020-06-01 -- 2020-06-04     4 epi_df
#>  5 ca        2020-06-06 2020-06-01 -- 2020-06-05     5 epi_df
#>  6 ca        2020-06-07 2020-06-02 -- 2020-06-06     5 epi_df
#>  7 ca        2020-06-08 2020-06-03 -- 2020-06-07     5 epi_df
#>  8 ca        2020-06-09 2020-06-04 -- 2020-06-08     5 epi_df
#>  9 ca        2020-06-10 2020-06-05 -- 2020-06-09     5 epi_df
#> 10 ca        2020-06-11 2020-06-06 -- 2020-06-10     5 epi_df
#> # ℹ 47 more rows
…
