A function to describe revision behavior for an archive. — revision_summary • epiprocess
…
#> Quick revisions (last revision within 3 days of the `time_value`):
#> • 0 out of 1,956 (0%)
#> Few revisions (At most 3 revisions for that `time_value`):
#> • 0 out of 1,956 (0%)
#> 
#> Fraction of revised epi_key+time_values which have:
#> Less than 0.1 spread in relative value:
#> • 91 out of 1,956 (4.65%)
#> Spread of more than 2.22056495 in actual value (when revised):
#> • 671 out of 1,956 (34.3%)
#> days until within 20% of the latest value:
#>      min median     mean     max
#>   3 days 5 days 9.1 days 67 days
revision_example %>% arrange(desc(spread))
#> # A tibble: 1,956 × 11
#>    time_value geo_value n_revisions min_lag max_lag time_near_latest spread
#>    <date>     <chr>           <dbl> <drtn>  <drtn>  <drtn>            <dbl>
#>  1 2020-12-26 ca                 62 3 days  73 days  6 days           14.1 
#>  2 2020-12-25 ca                 62 3 days  73 days  7 days           13.2 
#>  3 2020-11-27 fl                 66 3 days  73 days  4 days           12.0 
#>  4 2021-09-27 fl                 43 3 days  63 days 59 days            9.79
#>  5 2020-12-25 fl                 62 3 days  73 days  4 days            9.75
#>  6 2021-09-26 fl                 43 4 days  64 days 60 days            9.48
#>  7 2021-09-27 ca                 43 3 days  63 days  8 days            9.31
#>  8 2021-09-25 fl                 43 5 days  65 days 61 days            8.83
#>  9 2020-11-05 ny                 66 3 days  73 days 11 days            8.64
#> 10 2020-11-27 tx                 66 3 days  73 days 10 days            8.56
#> # ℹ 1,946 more rows
#> # ℹ 4 more variables: rel_spread <dbl>, min_value <dbl>, max_value <dbl>,
#> #   median_value <dbl>
…
