5. Aggregate signals over space and time • epiprocess
…
## # A tsibble: 6 x 5 [1D]
## # Key:       geo_value [1]
##   geo_value time_value new_cases STNAME        CTYNAME       
##   <chr>     <date>         <dbl> <chr>         <chr>         
## 1 33001     2021-01-01         0 New Hampshire Belknap County
## 2 33001     2021-01-02        47 New Hampshire Belknap County
## 3 33001     2021-01-03        63 New Hampshire Belknap County
## 4 33001     2021-01-04        25 New Hampshire Belknap County
## 5 33001     2021-01-05        16 New Hampshire Belknap County
## 6 33001     2021-01-06        35 New Hampshire Belknap County

# if use the key argument to key by state name
as_tsibble(case_epidf, key = c("geo_value", "STNAME", "CTYNAME"))

## # A tsibble: 3,624 x 5 [1D]
## # Key:       geo_value, STNAME, CTYNAME [24]
##    geo_value time_value new_cases STNAME        CTYNAME       
##    <chr>     <date>         <dbl> <chr>         <chr>         
##  1 33001     2021-01-01         0 New Hampshire Belknap County
##  2 33001     2021-01-02        47 New Hampshire Belknap County
##  3 33001     2021-01-03        63 New Hampshire Belknap County
##  4 33001     2021-01-04        25 New Hampshire Belknap County
##  5 33001     2021-01-05        16 New Hampshire Belknap County
##  6 33001     2021-01-06        35 New Hampshire Belknap County
##  7 33001     2021-01-07        16 New Hampshire Belknap County
##  8 33001     2021-01-08        42 New Hampshire Belknap County
##  9 33001     2021-01-09        32 New Hampshire Belknap County
## 10 33001     2021-01-10        19 New Hampshire Belknap County
## # … with 3,614 more rows
…
