2. Compute percentage change over time • epitools
…
Percentage change

The pct_change() function operates on a epi_signal data frame, and takes an argument n, indicating the size of the local window (in days) to use in order to compute the percentage change. For example, if n = 10, then (for each geo_value) the percentage change on November 10 is calculated as 100 * (B - A) / A, where A is the sum of the values between November 6 and November 10, and A is the sum of the values between November 1 and November 5. The default is n = 14, giving the percentage change between adjacent weeks.

pct_change(x, n = 14) %>%
  head(21)

## # A tibble: 21 × 5
##    value geo_value time_value issue      pct_change
##    <dbl> <chr>     <date>     <date>          <dbl>
##  1   667 fl        2020-06-01 2020-10-14         NA
##  2   617 fl        2020-06-02 2020-10-14         NA
##  3  1317 fl        2020-06-03 2020-10-14         NA
##  4  1419 fl        2020-06-04 2020-10-14         NA
##  5  1305 fl        2020-06-05 2020-10-14         NA
##  6  1270 fl        2020-06-06 2020-10-14         NA
##  7  1180 fl        2020-06-07 2020-10-14         NA
##  8   966 fl        2020-06-08 2020-10-14         NA
##  9  1096 fl        2020-06-09 2020-10-14         NA
## 10  1371 fl        2020-06-10 2020-10-14         NA
## # … with 11 more rows
…
