Working with epi_archive objects and data revisions • epiprocess
…
Producing snapshots in epi_df form

A key method of an epi_archive class is
epix_as_of(), which generates a snapshot of the archive in
epi_df format. This represents the most up-to-date values
of the signal variables as of a given version.

edf <- epix_as_of(dv_archive, as.Date("2021-06-01"))
print(edf)
#> An `epi_df` object, 1,460 x 3 with metadata:
#> * geo_type  = state
#> * time_type = day
#> * as_of     = 2021-06-01
#> 
#> # A tibble: 1,460 × 3
#>   geo_value time_value percent_cli
#> * <chr>     <date>           <dbl>
#> 1 ca        2020-06-01        2.75
#> 2 ca        2020-06-02        2.57
#> 3 ca        2020-06-03        2.48
#> 4 ca        2020-06-04        2.41
#> 5 ca        2020-06-05        2.57
#> 6 ca        2020-06-06        2.63
#> # ℹ 1,454 more rows
…
