Detect and correct outliers in signals • epiprocess
…
Outlier correction

Finally, in order to correct outliers, we can use the posited replacement values returned by each outlier detection method. Below we use the replacement value from the combined method, which is defined by the median of replacement values from the base methods at each time point.

y <- x %>% 
  mutate(cases_corrected = combined_replacement) %>%
  select(geo_value, time_value, cases, cases_corrected) 

y %>% filter(cases != cases_corrected)

## # A tibble: 22 × 4
## # Groups:   geo_value [2]
##    geo_value time_value cases cases_corrected
##    <chr>     <date>     <dbl>           <dbl>
##  1 fl        2020-07-12 15300          10181 
##  2 nj        2020-07-19    -8            320.
##  3 nj        2020-08-13   694            404.
##  4 nj        2020-08-14   619            397.
##  5 nj        2020-08-16    40            366 
##  6 nj        2020-08-22   555            360 
##  7 fl        2020-09-01  7569           2861.
##  8 nj        2020-10-08  1415            873.
##  9 fl        2020-10-10     0           2660 
## 10 fl        2020-10-11  5570           2660 
## # … with 12 more rows
…
